Exploratory Data Analysis
…
julia> selcols = ["Age", "Country", "ConvertedCompYearly", "DevType", "Employment", "Ethnicity", "Gender", "OrgSize", "YearsCode"]
9-element Vector{String}:
 "Age"
 "Country"
 "ConvertedCompYearly"
 "DevType"
 "Employment"
 "Ethnicity"
 "Gender"
 "OrgSize"
 "YearsCode"

julia> df = CSV.read("survey_results_public.csv", DataFrame; missingstring="NA", select=selcols)
83439×9 DataFrame
   Row │ Employment                         Country                            YearsCode  DevType                          ⋯
       │ String?                            String                             String31?  String?                          ⋯
───────┼────────────────────────────────────────────────────────────────────────────────────────────────────────────────────
     1 │ Independent contractor, freelanc…  Slovakia                           missing    Developer, mobile                ⋯
     2 │ Student, full-time                 Netherlands                        7          missing
     3 │ Student, full-time                 Russian Federation                 missing    missing
   ⋮   │                 ⋮                                  ⋮                      ⋮                      ⋮                ⋱
 83438 │ Employed full-time                 Canada                             5          Developer, back-end
 83439 │ Employed full-time                 Brazil                             14         Developer, front-end;Developer,  ⋯
                                                                                            6 columns and 83434 rows omitted
…
