…
help?> CSV.read
  CSV.read(source, sink::T; kwargs...) => T

  Read and parses a delimited file or files, materializing directly using the sink function. Allows avoiding excessive copies of columns for certain
  sinks like DataFrame.
[..]
```

Equipped with this knowledge we are now ready to load the file:
```julia-repl
julia> df_survey = CSV.read("survey_results_public.csv", DataFrame)
83439×48 DataFrame
   Row │ ResponseId  MainBranch                         Employment                         Country                            US_State       UK_Coun ⋯
       │ Int64       String                             String                             String                             String         String3 ⋯
───────┼──────────────────────────────────────────────────────────────────────────────────────────────────────────────────────────────────────────────
     1 │          1  I am a developer by profession     Independent contractor, freelanc…  Slovakia                           NA             NA      ⋯
     2 │          2  I am a student who is learning t…  Student, full-time                 Netherlands                        NA             NA
     3 │          3  I am not primarily a developer, …  Student, full-time                 Russian Federation                 NA             NA
     4 │          4  I am a developer by profession     Employed full-time                 Austria                            NA             NA
     5 │          5  I am a developer by profession     Independent contractor, freelanc…  United Kingdom of Great Britain …  NA             England ⋯
     6 │          6  I am a student who is learning t…  Student, part-time                 United States of America           Georgia        NA
   ⋮   │     ⋮                       ⋮                                  ⋮                                  ⋮                        ⋮            ⋮   ⋱
 83435 │      83435  I am a developer by profession     Employed full-time                 United States of America           Texas          NA
 83436 │      83436  I am a developer by profession     Independent contractor, freelanc…  Benin                              NA             NA
 83437 │      83437  I am a developer by profession     Employed full-time                 United States of America           New Jersey     NA      ⋯
 83438 │      83438  I am a developer by profession     Employed full-time                 Canada                             NA             NA
 83439 │      83439  I am a developer by profession     Employed full-time                 Brazil                             NA             NA
                                                                                                                     43 columns and 83428 rows omitted
```
…
Unfortunately, the vector has too many elements and also gets summarized. The full output can be shown with `show`:
```julia-repl
julia> show(names(df_survey))
["ResponseId", "MainBranch", "Employment", "Country", "US_State", "UK_Country", "EdLevel", "Age1stCode", "LearnCode", "YearsCode", "YearsCodePro", "DevType", "OrgSize", "Currency", "CompTotal", "CompFreq", "LanguageHaveWorkedWith", "LanguageWantToWorkWith", "DatabaseHaveWorkedWith", "DatabaseWantToWorkWith", "PlatformHaveWorkedWith", "PlatformWantToWorkWith", "WebframeHaveWorkedWith", "WebframeWantToWorkWith", "MiscTechHaveWorkedWith", "MiscTechWantToWorkWith", "ToolsTechHaveWorkedWith", "ToolsTechWantToWorkWith", "NEWCollabToolsHaveWorkedWith", "NEWCollabToolsWantToWorkWith", "OpSys", "NEWStuck", "NEWSOSites", "SOVisitFreq", "SOAccount", "SOPartFreq", "SOComm", "NEWOtherComms", "Age", "Gender", "Trans", "Sexuality", "Ethnicity", "Accessibility", "MentalHealth", "SurveyLength", "SurveyEase", "ConvertedCompYearly"]
```

Let us assume that we are conducting a little study on the income of different developer roles and therefore we are only interested in the columns: `["Age", "Country", "ConvertedCompYearly", "DevType", "Employment", "Ethnicity", "Gender", "OrgSize", "YearsCode"]`. Unfortunately, `ConvertedCompYearly` is not further described within the dataset schema but it is reasonably fair to assume that this reflects the annual income in dollars. Selecting various columns works with the `df_survey[!, cols]` notation:
```julia-repl
julia> selcols = ["Age", "Country", "ConvertedCompYearly", "DevType", "Employment", "Ethnicity", "Gender", "OrgSize", "YearsCode"]
[...]

julia> df_survey[!, selcols]
83439×9 DataFrame
   Row │ Age              Country                            ConvertedCompYearly  DevType                            Employment                       ⋯
       │ String31         String                             String15             String                             String                           ⋯
───────┼───────────────────────────────────────────────────────────────────────────────────────────────────────────────────────────────────────────────
     1 │ 25-34 years old  Slovakia                           62268                Developer, mobile                  Independent contractor, freelanc ⋯
     2 │ 18-24 years old  Netherlands                        NA                   NA                                 Student, full-time
   ⋮   │        ⋮                         ⋮                           ⋮                           ⋮                                  ⋮                ⋱
 83438 │ 25-34 years old  Canada                             816816               Developer, back-end                Employed full-time
 83439 │ 18-24 years old  Brazil                             21168                Developer, front-end;Developer, …  Employed full-time
                                                                                                                       5 columns and 83435 rows omitted
```

Do we notice that something odd happened? `ConvertedCompYearly` apparently is stored as a `String15` (meaning a `String` with fixed length of 15 letters) column. Taking a closer look at the data and/or CSV file, this is due to `NA` being used as text in the CSV file. We obviously want this column to be of type `Integer` (to be more precise of type `Union{Integer, Missing}`) and the `NA`s should be `missing` instead. If we would have known about this earlier, we could have corrected this right at the start when reading the dataframe. This also counts for various other problems that often occur with this file format. Non-standard seperation letter, different symbols for writing decimal numbers to just name two. Reading the manual of `CSV.read` tells us how we should read the data correctly and we can tell the function that we only want to read specific columns:
```julia-repl
julia> df_survey = CSV.read("survey_results_public.csv", DataFrame; missingstring="NA", select=selcols)
83439×9 DataFrame
   Row │ Employment                         Country                            YearsCode  DevType                            OrgSize                            Age  ⋯
       │ String?                            String                             String31?  String?                            String?                            Stri ⋯
───────┼──────────────────────────────────────────────────────────────────────────────────────────────────────────────────────────────────────────────────────────────
     1 │ Independent contractor, freelanc…  Slovakia                           missing    Developer, mobile                  20 to 99 employees                 25-3 ⋯
     2 │ Student, full-time                 Netherlands                        7          missing                            missing                            18-2
   ⋮   │                 ⋮                                  ⋮                      ⋮                      ⋮                                  ⋮                       ⋱
 83438 │ Employed full-time                 Canada                             5          Developer, back-end                20 to 99 employees                 25-3
 83439 │ Employed full-time                 Brazil                             14         Developer, front-end;Developer, …  I don’t know                       18-2
                                                                                                                                      4 columns and 83435 rows omitted
```
…
